An Introduction to Extreme Value Theory in R
…
We want to get the highest observation each year. 

Light touch: Restrict to years with more than 90% of the observations each year.

stn_max <- stn_data_preprocessed |> 
  dplyr::group_by(year, element) |>
  dplyr::summarise(max = max(observation, na.rm = TRUE),
                   count = sum(as.numeric(!is.na(observation)))) |>
  ungroup() |>
  dplyr::filter(count > 365*0.9) |>
  select(-count) 

Get the maxima

# A tibble: 236 × 3
    year element   max
   <dbl> <chr>   <dbl>
 1  1899 prcp     38.1
 2  1900 prcp     84.8
 3  1901 prcp    156. 
 4  1902 prcp     56.4
 5  1903 prcp     82.6
 6  1904 prcp     37.6
 7  1905 prcp     51.1
 8  1906 prcp     80.3
 9  1907 prcp     42.7
10  1908 prcp    118. 
# ℹ 226 more rows
…
